INDEX VERSION 1.130+C:\Fsd\fsd62\Module3\EmpWebAppWorkspace\.metadata\.plugins\org.eclipse.jdt.core
2643953187.index
1187245208.index
3348520720.index
3061971370.index
4048613494.index
1956904976.index
725948207.index
2365343375.index
103378668.index
1961815414.index
3086357876.index
1257228389.index
1813066947.index
411227453.index
2336127210.index
2507423472.index
805992913.index
4258469554.index
4259073463.index
2205283528.index
2361596400.index
3644761064.index
3682340838.index
721097832.index
4132908348.index
2066830214.index
3531133111.index
238675932.index
3072815518.index
2885606711.index
4138326577.index
75570635.index
674573568.index
895354549.index
2315368050.index
1619547384.index
2318141407.index
610382045.index
696142759.index
4135958314.index
542153213.index
951707997.index
1946725198.index
1147540501.index
3773504055.index
4286627425.index
668059438.index
3515781711.index
3040837599.index
