<?xml version="1.0" encoding="UTF-8"?>
<session version="1.0">
<refactoring comment="Delete resource &apos;EmpWebApp&apos;" deleteContents="false" description="Delete resource &apos;EmpWebApp&apos;" element1="/EmpWebApp" flags="7" id="org.eclipse.ltk.core.refactoring.delete.resources" resources="1" stamp="1711944037278"/>
</session>