INDEX VERSION 1.130+C:\Fsd\fsd62\Module3\workspace2\.metadata\.plugins\org.eclipse.jdt.core
725948207.index
668059438.index
2187889462.index
2365343375.index
3515781711.index
2361596400.index
3061971370.index
3682340838.index
1147540501.index
3072815518.index
4132908348.index
4286627425.index
951707997.index
1619547384.index
1187245208.index
2336127210.index
2643953187.index
2315368050.index
4258469554.index
805992913.index
3086357876.index
238675932.index
75570635.index
2318141407.index
4048613494.index
1257228389.index
3531133111.index
2062559989.index
1813066947.index
610382045.index
