INDEX VERSION 1.130+C:\Fsd\fsd62\module4\1. SpringBoot\workspace1\.metadata\.plugins\org.eclipse.jdt.core
2290501805.index
1639760700.index
3348520720.index
1724855259.index
3240049213.index
2728675798.index
2226664183.index
2776865659.index
3622523986.index
3925308402.index
3644763348.index
3419653176.index
674573568.index
2066830214.index
3962140766.index
3581831440.index
2205283528.index
718356306.index
2883632185.index
4178660467.index
498507298.index
961496899.index
4146446283.index
1980243101.index
3644761064.index
4055155194.index
935137382.index
1956904976.index
4195933636.index
2543797802.index
4135958314.index
754876138.index
626708732.index
2885606711.index
2300095932.index
479446380.index
2988818284.index
1979930988.index
32614081.index
4189266467.index
3257728887.index
3172997698.index
1961815414.index
1780615453.index
42621258.index
2483277667.index
895354549.index
411227453.index
1946725198.index
419861454.index
3220334104.index
2838379373.index
3040837599.index
103378668.index
2246232506.index
1121266731.index
2507423472.index
2234338908.index
1600593620.index
3134458352.index
1365090351.index
3612755567.index
2987419997.index
4138326577.index
1857073296.index
4039648500.index
1828026965.index
690007667.index
25126612.index
2587575171.index
3675501232.index
1511042027.index
3705632181.index
4137785170.index
542153213.index
4094159524.index
1104811165.index
4259073463.index
3219391363.index
