<?xml version="1.0" encoding="UTF-8"?>
<session version="1.0">
<refactoring accessors="true" comment="Delete element from project &apos;stdlogin&apos;&#x0D;&#x0A;- Original project: &apos;stdlogin&apos;&#x0D;&#x0A;- Original element: &apos;stdlogin/src/main/java/com.dao&apos;" description="Delete element" element1="/src\/main\/java&lt;com.dao" elements="1" flags="589830" id="org.eclipse.jdt.ui.delete" resources="0" stamp="1714414976155" subPackages="false" version="1.0"/>
</session>