127.0.0.1 - - [03/Apr/2024:10:15:25 +0530] "GET / HTTP/1.1" 404 752
0:0:0:0:0:0:0:1 - - [03/Apr/2024:10:15:26 +0530] "GET /EmpWebAppWork/LoginPage.html HTTP/1.1" 304 -
0:0:0:0:0:0:0:1 - - [03/Apr/2024:10:15:32 +0530] "POST /EmpWebAppWork/LoginPage HTTP/1.1" 200 250
